…
Now I’m going to filter my data to look at countries with life
expectancy greater than 50.

``` r
gapminder %>% 
  filter(lifeExp > 50)
```

    ## # A tibble: 1,213 x 6
    ##    country continent  year lifeExp     pop gdpPercap
    ##    <fct>   <fct>     <int>   <dbl>   <int>     <dbl>
    ##  1 Albania Europe     1952    55.2 1282697     1601.
    ##  2 Albania Europe     1957    59.3 1476505     1942.
    ##  3 Albania Europe     1962    64.8 1728137     2313.
    ##  4 Albania Europe     1967    66.2 1984060     2760.
    ##  5 Albania Europe     1972    67.7 2263554     3313.
    ##  6 Albania Europe     1977    68.9 2509048     3533.
    ##  7 Albania Europe     1982    70.4 2780097     3631.
    ##  8 Albania Europe     1987    72   3075321     3739.
    ##  9 Albania Europe     1992    71.6 3326498     2497.
    ## 10 Albania Europe     1997    73.0 3428038     3193.
    ## # ... with 1,203 more rows

Now I am curious about just life exp and population in the different
countries.

``` r
gapminder %>% 
select(country, lifeExp, pop)
```

    ## # A tibble: 1,704 x 3
    ##    country     lifeExp      pop
    ##    <fct>         <dbl>    <int>
    ##  1 Afghanistan    28.8  8425333
    ##  2 Afghanistan    30.3  9240934
    ##  3 Afghanistan    32.0 10267083
    ##  4 Afghanistan    34.0 11537966
    ##  5 Afghanistan    36.1 13079460
    ##  6 Afghanistan    38.4 14880372
    ##  7 Afghanistan    39.9 12881816
    ##  8 Afghanistan    40.8 13867957
    ##  9 Afghanistan    41.7 16317921
    ## 10 Afghanistan    41.8 22227415
    ## # ... with 1,694 more rows

Now I am just curious about countries in africa that have a life
expentancy greater than 50.

``` r
gapminder %>% 
  filter(lifeExp > 50) %>% 
  filter(continent == "Africa")
```

    ## # A tibble: 251 x 6
    ##    country continent  year lifeExp      pop gdpPercap
    ##    <fct>   <fct>     <int>   <dbl>    <int>     <dbl>
    ##  1 Algeria Africa     1967    51.4 12760499     3247.
    ##  2 Algeria Africa     1972    54.5 14760787     4183.
    ##  3 Algeria Africa     1977    58.0 17152804     4910.
    ##  4 Algeria Africa     1982    61.4 20033753     5745.
    ##  5 Algeria Africa     1987    65.8 23254956     5681.
    ##  6 Algeria Africa     1992    67.7 26298373     5023.
    ##  7 Algeria Africa     1997    69.2 29072015     4797.
    ##  8 Algeria Africa     2002    71.0 31287142     5288.
    ##  9 Algeria Africa     2007    72.3 33333216     6223.
    ## 10 Benin   Africa     1982    50.9  3641603     1278.
    ## # ... with 241 more rows
…
